Max peak for Run 1 : 114.44821159698583
Max peak for Run 2 : 114.90329673147295
Max peak for Run 3 : 115.68490941323688
Max peak for Run 4 : 115.91634357444453
Max peak for Run 5 : 116.13118236817164
Max peak for Run 6 : 114.81248902646615
Max peak for Run 7 : 114.93949639702939
Max peak for Run 8 : 111.80807471713587
Max peak for Run 9 : 116.53605770417674
Max peak for Run 10 : 113.00426437762799

Median static power : 26.0683502498
Median of all the max peaks (- static power) for minife:electron1 : 88.8530463144