Max peak for Run 1 : 196.7203462284885
Max peak for Run 2 : 194.6034133371108
Max peak for Run 3 : 194.79889043188862
Max peak for Run 4 : 190.53162577907648
Max peak for Run 5 : 199.14129610474197
Max peak for Run 6 : 192.58455869344436
Max peak for Run 7 : 195.0168882190709
Max peak for Run 8 : 195.76363031819298
Max peak for Run 9 : 196.62200565301254
Max peak for Run 10 : 195.8602992237322

Median static power : 29.173311071
Median of all the max peaks (- static power) for dacapo:xalan : 166.216948198