Max peak for Run 1 : 69.38253684901795
Max peak for Run 2 : 73.74467494044941
Max peak for Run 3 : 70.80611053339973
Max peak for Run 4 : 78.49113720540912
Max peak for Run 5 : 75.01608930391818
Max peak for Run 6 : 71.55956148344791
Max peak for Run 7 : 73.95818314733263
Max peak for Run 8 : 73.0683387645199
Max peak for Run 9 : 73.16825019748276
Max peak for Run 10 : 70.29357003119425

Median static power : 18.2148536194
Median of all the max peaks (- static power) for stream:electron1 : 54.9034408616