Max peak for Run 1 : 113.9894292251754
Max peak for Run 2 : 114.43039683378977
Max peak for Run 3 : 114.62932756238547
Max peak for Run 4 : 114.14017369436426
Max peak for Run 5 : 114.3794079447384
Max peak for Run 6 : 114.08188808665332
Max peak for Run 7 : 114.19482028082084
Max peak for Run 8 : 114.24110932100122
Max peak for Run 9 : 114.57143676189077
Max peak for Run 10 : 113.95159013394033

Median static power : 16.7843475566
Median of all the max peaks (- static power) for dacapo:xalan : 97.4336172443