Max peak for Run 1 : 112.67263571439102
Max peak for Run 2 : 112.85342838501302
Max peak for Run 3 : 112.87475908177346
Max peak for Run 4 : 112.47150816679303
Max peak for Run 5 : 113.18996579274884
Max peak for Run 6 : 112.42592908460693
Max peak for Run 7 : 113.1260523368467
Max peak for Run 8 : 112.68318580547603
Max peak for Run 9 : 113.32913591488708
Max peak for Run 10 : 112.75654899796494

Median static power : 17.7886021266
Median of all the max peaks (- static power) for dacapo:xalan : 95.0163865649