Max peak for Run 1 : 125.36071556789102
Max peak for Run 2 : 117.24262138060388
Max peak for Run 3 : 116.0605946247168
Max peak for Run 4 : 112.51533426520182
Max peak for Run 5 : 123.7649565060658
Max peak for Run 6 : 121.40110683949781
Max peak for Run 7 : 122.4100679967315
Max peak for Run 8 : 125.27157092338452
Max peak for Run 9 : 121.43786653952347
Max peak for Run 10 : 118.08404211017839

Median static power : 20.5508177261
Median of all the max peaks (- static power) for dacapo:lusearch : 100.868668963