Max peak for Run 1 : 90.85131657631113
Max peak for Run 2 : 89.54974880195434
Max peak for Run 3 : 90.78300901455594
Max peak for Run 4 : 90.97011851931201
Max peak for Run 5 : 92.02681410268508
Max peak for Run 6 : 89.97563647101516
Max peak for Run 7 : 90.77008365060809
Max peak for Run 8 : 91.43149981362745
Max peak for Run 9 : 91.9155195369746
Max peak for Run 10 : 92.81008881358453

Median static power : 26.0683502498
Median of all the max peaks (- static power) for dacapo:fop : 64.842367298