Max peak for Run 1 : 53.17838838224299
Max peak for Run 2 : 52.41715461950493
Max peak for Run 3 : 52.45600248206267
Max peak for Run 4 : 52.25254458196275
Max peak for Run 5 : 52.5004952569406
Max peak for Run 6 : 54.204575550968755
Max peak for Run 7 : 52.37261295312899
Max peak for Run 8 : 52.8008674951198
Max peak for Run 9 : 52.52587480752682
Max peak for Run 10 : 52.57422650518571

Median static power : 20.3233647132
Median of all the max peaks (- static power) for stream:electron1 : 32.189820319