Max peak for Run 1 : 127.56081439001206
Max peak for Run 2 : 129.59996292049533
Max peak for Run 3 : 131.4022257124074
Max peak for Run 4 : 129.94942987581854
Max peak for Run 5 : 128.93007328649563
Max peak for Run 6 : 128.97900077550952
Max peak for Run 7 : 129.77447046232362
Max peak for Run 8 : 129.53084375404683
Max peak for Run 9 : 131.56677011044764
Max peak for Run 10 : 130.40125046678517

Median static power : 18.2148536194
Median of all the max peaks (- static power) for dacapo:sunflow : 111.472363072