Max peak for Run 1 : 131.0315430392644
Max peak for Run 2 : 128.00969208502255
Max peak for Run 3 : 129.86219820864966
Max peak for Run 4 : 123.77887110702345
Max peak for Run 5 : 130.94550695418312
Max peak for Run 6 : 129.998504838323
Max peak for Run 7 : 127.18084600298549
Max peak for Run 8 : 122.59007148169307
Max peak for Run 9 : 126.89628200828912
Max peak for Run 10 : 116.09134272546461

Median static power : 21.1913666072
Median of all the max peaks (- static power) for dacapo:tomcat : 106.403902437