Max peak for Run 1 : 66.79833056402299
Max peak for Run 2 : 68.25458549593134
Max peak for Run 3 : 67.0849694834901
Max peak for Run 4 : 66.6114972836892
Max peak for Run 5 : 67.10105350451731
Max peak for Run 6 : 69.05663639417662
Max peak for Run 7 : 66.87765370074683
Max peak for Run 8 : 67.22902809583465
Max peak for Run 9 : 68.958720069743
Max peak for Run 10 : 69.41483705553343

Median static power : 20.2480978724
Median of all the max peaks (- static power) for dacapo:batik : 46.9169429278