Max peak for Run 1 : 63.196262605045455
Max peak for Run 2 : 63.50989592759987
Max peak for Run 3 : 63.065881188884845
Max peak for Run 4 : 62.88357445921097
Max peak for Run 5 : 63.5575374673151
Max peak for Run 6 : 63.37212846292672
Max peak for Run 7 : 63.37163777678111
Max peak for Run 8 : 63.91593765685404
Max peak for Run 9 : 62.54244351027883
Max peak for Run 10 : 63.32304683046671

Median static power : 15.8720119046
Median of all the max peaks (- static power) for dacapo:jython : 47.4753303991