Max peak for Run 1 : 64.429989137277
Max peak for Run 2 : 63.284703877534255
Max peak for Run 3 : 64.36897163586411
Max peak for Run 4 : 65.06794477060042
Max peak for Run 5 : 65.53766344785457
Max peak for Run 6 : 64.2172569134098
Max peak for Run 7 : 63.9027482655677
Max peak for Run 8 : 62.18854185214173
Max peak for Run 9 : 65.84772843858251
Max peak for Run 10 : 62.98333091607806

Median static power : 19.7675111459
Median of all the max peaks (- static power) for dacapo:luindex : 44.5256031287