Max peak for Run 1 : 130.0744949073547
Max peak for Run 2 : 132.5924598372991
Max peak for Run 3 : 132.062831641068
Max peak for Run 4 : 131.15363568070532
Max peak for Run 5 : 131.63913015186367
Max peak for Run 6 : 133.05935039625342
Max peak for Run 7 : 132.65291251198715
Max peak for Run 8 : 133.94239635932072
Max peak for Run 9 : 133.07647204898018
Max peak for Run 10 : 132.23591100293956

Median static power : 20.3233647132
Median of all the max peaks (- static power) for dacapo:xalan : 112.090820707