Max peak for Run 1 : 67.08290475033479
Max peak for Run 2 : 67.857561557821
Max peak for Run 3 : 69.77021146462438
Max peak for Run 4 : 66.65330026600557
Max peak for Run 5 : 67.05622064205026
Max peak for Run 6 : 66.39249763240944
Max peak for Run 7 : 68.3987750572504
Max peak for Run 8 : 66.32944150047307
Max peak for Run 9 : 66.8227415855003
Max peak for Run 10 : 67.3087138427922

Median static power : 20.5508177261
Median of all the max peaks (- static power) for dacapo:tradebeans : 46.5187449701